…
``` r
cowplot::plot_grid(plotlist = my_plots[c(4,6:9)],
                   labels = "AUTO")
```

<img src="figures/Figure-unnamed-chunk-24-1.png" width="70%" style="display: block; margin: auto;" />

# The growth of wheat infested by weed

Could you explain the setting of weed free control in this data frame?

``` r
infested_wheat
#> # A tibble: 27 × 10
#>    treatments    shoot_length SPAD_value no_of_tillers_per_pl…¹ biological_yield
#>    <chr>                <dbl>      <dbl>                  <dbl>            <dbl>
#>  1 weed free co…          110       48.2                     14             9.95
#>  2 weed free co…          115       43.7                     13            10.0 
#>  3 weed free co…          126       43.7                     12            10.2 
#>  4 wheat+weed 1…          100       38.4                     11             8.23
#>  5 wheat+weed 1…           96       40.2                     10             8.12
#>  6 wheat+weed 1…           94       39.2                     11             8.16
#>  7 wheat+weed 1…          100       44.3                     11             9.09
#>  8 wheat+weed 1…          109       44.1                     12             9.08
#>  9 wheat+weed 1…          108       42.8                     13             9.32
#> 10 wheat+weed 7…           98       38.1                      8             8.32
#> # ℹ 17 more rows
#> # ℹ abbreviated name: ¹​no_of_tillers_per_plant
#> # ℹ 5 more variables: grain_yield <dbl>, straw_yield <dbl>,
#> #   photosynthetic_rate <dbl>, transpiration_rate <dbl>,
#> #   stomatal_conductance <dbl>
```
…
               "wheat+weed 50% axial control", 
               "wheat+weed 50% axial control+c4 inoculation", 
               "wheat+weed 25% axial control", 
               "wheat+weed 25% axial control+c4 inoculation"),
    labels = c("weed-free", 
               "100% Axial", 
               "100% Axial", 
               "75% Axial", 
               "75% Axial",
               "50% Axial", 
               "50% Axial", 
               "25% Axial", 
               "25% Axial")))
infested_wheat
#> # A tibble: 27 × 11
#>    treatments has_c4     shoot_length SPAD_value no_of_tillers_per_plant
#>    <fct>      <fct>             <dbl>      <dbl>                   <dbl>
#>  1 weed-free  without C4          110       48.2                      14
#>  2 weed-free  without C4          115       43.7                      13
#>  3 weed-free  without C4          126       43.7                      12
#>  4 100% Axial without C4          100       38.4                      11
#>  5 100% Axial without C4           96       40.2                      10
#>  6 100% Axial without C4           94       39.2                      11
#>  7 100% Axial with C4             100       44.3                      11
#>  8 100% Axial with C4             109       44.1                      12
#>  9 100% Axial with C4             108       42.8                      13
#> 10 75% Axial  without C4           98       38.1                       8
#> # ℹ 17 more rows
#> # ℹ 6 more variables: biological_yield <dbl>, grain_yield <dbl>,
#> #   straw_yield <dbl>, photosynthetic_rate <dbl>, transpiration_rate <dbl>,
#> #   stomatal_conductance <dbl>
```
…
